<?xml version="1.0" encoding="utf-8"?>
<!-- Svg Vector Icons : http://www.onlinewebfonts.com/icon -->
<!DOCTYPE svg PUBLIC "-//W3C//DTD SVG 1.1//EN" "http://www.w3.org/Graphics/SVG/1.1/DTD/svg11.dtd">
<svg version="1.1" xmlns="http://www.w3.org/2000/svg" xmlns:xlink="http://www.w3.org/1999/xlink" x="0px" y="0px" viewBox="0 0 1000 1000" enable-background="new 0 0 1000 1000" xml:space="preserve">
<metadata> Svg Vector Icons : http://www.onlinewebfonts.com/icon </metadata>
<g><g transform="translate(0.000000,278.000000) scale(0.100000,-0.100000)"><path d="M8103.3,245.1c-411.2-115.3-2309.7-638-4217.8-1162.5C1977.4-1442.1,380.6-1884,336.3-1901.3c-44.2-15.4-113.4-65.3-157.6-113.4c-67.3-73-78.8-98-78.8-172.9c0-111.4,657.2-2515.3,707.1-2582.6c46.1-65.3,149.9-117.2,232.5-117.2c36.5,0,801.3,201.8,1700.6,449.6c899.3,247.9,2832.4,780.2,4296.6,1183.7c1464.2,403.5,2686.3,747.5,2719,766.7c84.6,48,144.1,148,144.1,240.2c0,92.2-659.1,2513.4-701.4,2578.8c-42.3,63.4-132.6,105.7-247.9,115.3C8870,452.6,8718.2,416.1,8103.3,245.1z M8777.8-869.4c57.6-203.7,107.6-376.6,113.4-382.4c5.8-5.8,40.4,0,78.8,11.5c75,23.1,67.3,30.8,111.5-117.2c26.9-92.2,26.9-92.2-19.2-111.5c-26.9-9.6-61.5-17.3-76.9-17.3c-34.6,0-34.6-23.1,11.5-182.5c21.1-73,30.7-138.4,23.1-144.1c-23.1-21.1-255.6-78.8-272.9-67.3c-7.7,5.8-30.7,69.2-48,144.1c-17.3,74.9-40.4,138.4-48,144.1c-7.7,3.8-138.3-25-290.1-67.3c-151.8-42.3-280.6-76.9-288.2-76.9c-5.8,0-21.2,46.1-34.6,103.8c-23,103.8-21.1,111.5,115.3,576.5L8291.6-587l165.3,48c90.3,26.9,176.8,46.1,192.1,46.1C8668.3-496.6,8708.6-613.9,8777.8-869.4z M7503.8-898.2c182.5-88.4,226.7-347.8,84.6-499.6l-63.4-65.3l63.4-9.6c297.8-50,407.4-370.9,203.7-607.2c-111.4-130.7-374.7-232.5-601.4-232.5c-146,0-153.7,5.8-153.7,142.2v119.1l140.3-1.9c157.6,0,303.6,46.1,349.7,111.4c15.4,23.1,28.8,73,28.8,111.5c0,57.6-13.5,82.6-61.5,123c-55.7,46.1-73,51.9-169.1,40.4c-57.6-5.8-132.6-15.4-165.3-23.1c-57.6-11.5-57.6-9.6-80.7,90.3c-13.5,55.7-17.3,105.7-9.6,113.4c9.6,7.7,51.9,23.1,96.1,36.5c117.2,32.7,197.9,105.7,197.9,180.6c0,32.7-13.5,75-32.7,94.2c-65.3,73-282.5,26.9-405.4-86.5c-48-44.2-53.8-42.3-126.8,84.5l-49.9,88.4l61.5,48C7031.1-871.3,7323.2-813.7,7503.8-898.2z M5958.9-1321c157.6-82.6,247.9-270.9,224.8-470.8c-13.4-119.1-119.1-355.5-230.6-509.2c-36.5-53.8-65.3-98-63.4-99.9c1.9-3.8,111.4,25,242.1,61.5c130.7,36.5,244,59.6,251.7,51.9c7.7-7.7,26.9-65.3,44.2-124.9l28.8-109.5l-59.6-19.2c-142.2-44.2-841.6-232.5-864.7-232.5c-15.4,0-34.6,36.5-46.1,90.3L5465-2595l140.3,222.9c230.6,369,292.1,516.9,267.1,645.7c-36.5,199.8-267.1,221-457.4,40.4c-42.3-38.4-76.9-67.3-78.8-65.3c0,3.8-30.7,42.3-63.4,84.5c-76.9,99.9-76.9,126.8-1.9,188.3C5482.3-1299.9,5784-1230.7,5958.9-1321z M4731-1653.4c63.4-217.1,340.1-1245.2,336.3-1250.9c-11.5-11.5-282.5-82.6-290.2-75c-3.8,3.8-71.1,238.3-148,518.8c-74.9,282.5-144.1,513.1-151.8,513.1c-5.8,0-57.6-38.4-113.4-86.5l-101.8-86.5l-53.8,99.9c-28.8,53.8-53.8,103.8-53.8,111.4s67.3,69.2,149.9,138.4c98,84.5,180.6,136.4,244,155.6C4696.4-1570.8,4707.9-1572.7,4731-1653.4z M3186-2064.6c196-94.2,230.6-336.3,71.1-501.5l-51.9-53.8h48c78.8-1.9,201.8-69.2,259.4-144.1c61.5-82.6,84.5-249.8,48-361.3c-28.8-86.5-169.1-215.2-295.9-272.9c-117.2-53.8-390.1-134.5-516.9-153.7c-76.9-11.5-90.3-7.7-98,23.1c-5.8,19.2-90.3,322.8-186.4,676.4c-140.3,511.2-171,645.7-149.9,657.2c23.1,17.3,386.2,138.3,466.9,157.6c21.1,5.8,101.8,9.6,180.6,11.5C3070.7-2024.3,3124.5-2033.9,3186-2064.6z M2079.2-2990.8c217.1-344,382.4-618.7,372.8-628.4c-9.6-9.6-71.1-30.8-136.4-46.1c-65.3-17.3-132.6-36.5-148-42.3c-17.3-7.7-57.6,42.3-126.8,153.7c-84.6,142.2-103.8,163.3-140.3,153.7c-23.1-5.8-111.5-28.8-196-51.9l-153.7-44.2l-5.8-192.2l-5.8-194.1l-155.6-42.3c-84.5-23.1-157.6-38.4-157.6-36.5c-11.5,19.2,38.4,1475.8,50,1485.4c23.1,23.1,390.1,121.1,401.6,107.6C1683.4-2374,1864-2654.6,2079.2-2990.8z M3977.7-2497c169.1-117.2,99.9-353.6-101.8-353.6c-69.2,0-92.2,9.6-132.6,59.6c-84.5,99.9-55.7,261.3,53.8,305.5C3860.5-2458.6,3931.6-2464.3,3977.7-2497z"/><path d="M8430-881c-7.7-42.3-38.4-172.9-69.2-292.1c-30.8-119.1-55.7-222.9-55.7-232.5c0-13.5,261.3,44.2,282.5,61.5c3.8,1.9-121.1,480.4-134.5,518.8C8447.3-813.7,8437.7-838.7,8430-881z"/><path d="M2738.3-2295.2c-34.6-9.6-65.3-25-71.1-34.6c-5.8-7.7,7.7-80.7,28.8-161.4c46.1-167.2,61.5-174.9,201.8-111.5c155.6,71.1,203.7,209.5,101.8,295.9C2955.5-2270.2,2842.1-2266.4,2738.3-2295.2z"/><path d="M2872.8-2852.5c-34.6-9.6-63.4-28.8-63.4-42.3c1.9-32.7,92.2-344,105.7-357.4c17.3-17.3,184.5,36.5,244,78.8c107.6,74.9,117.2,226.7,21.1,303.6C3126.5-2827.5,2986.2-2819.8,2872.8-2852.5z"/><path d="M1522-2950.5v-301.7l140.3,38.4c74.9,21.2,144.1,40.4,153.7,42.3c7.7,1.9-25,69.2-74.9,148c-50,78.8-119.1,196-153.7,259.4l-65.3,115.3V-2950.5z"/></g></g>
</svg>